"Process
(ROS node)","CPU usage
behavior tree
%","CPU usage
Python API
%","Memory usage
behavior tree
MiB","Memory
usage
Python API
MiB"
Behavior coordinator,"0,3","0,3","1,3","1,3"
Belief manager,"0,3","0,4","1,0","1,0"
Belief updater,"2,0","1,7","1,0","1,0"
Behavior tree interpreter,"2,0","0,0","14,4",0.0
Python interpreter,"0,0","0,7","0,0","47,4"
Behavior system: basic behaviors,"2,5","3,8","12,4","12,4"
Behavior system: motion behaviors,"5,2","5,2","12,6","12,6"
Emergency manager,"0,1","0,1","1,0","1,0"
SUM,"12,4","12,2","43,7","76,7"